{
    "index": {
        "download_fdroid": "Sider F-Droid",
        "gpg_signature": "Azmul PGP",
        "introduction": "F-Droid d akatalug yettwasebdaden n yisnasen n iseγzanen illelliyen neγ n uγbalu yeldin γef tetiknulujit Android. Amsaγ ad yessifses tunigin, asebded akked uḍfaṛ n ileqman γef yibenk-ik.",
        "screenshot": "Tuṭṭfa n ugdil n usnas Android F-Droid",
        "title": "D acu-t F-Droid ?"
    },
    "navigation": {
        "about": "Γef",
        "browse": "Snirem",
        "contribute": "Ttekki",
        "documentation": "Tasemlit",
        "forum": "Anmager",
        "issues": "Uguren",
        "news": "Isallen",
        "repomaker": "Repomaker",
        "tutorials": "Timsirin"
    },
    "package": {
        "author": "Ameskar",
        "build_metadata": "Build Metadata",
        "changelog": "Aγmis n ibeddilen",
        "donate": "Tawsa",
        "download": "Sider [file_extension]",
        "flattr": "Flattr",
        "gpg_signature": "Azmul PGP",
        "issue_tracker": "Aneḍfaṛ n ibugen",
        "liberapay": "Liberapay",
        "license": "Aselkin",
        "minimum_android_version": "Lqem-agi ilaq as Android [android_version]  neγ ugar.",
        "new_in_version": "Amaynut di lqem [latest_version]",
        "packages": "Ikemmusen",
        "permissions": "Tisirag",
        "signed_by_developer": "Yefsa-t udiγ izmel-it uneflay anesli.",
        "signed_by_fdroid": "Yebna udiγ yezmel sγur F-Droid, yettwaḍmen akken ad imeγru d <a href=\"[source_code_url]\">d uγbalu-agi n uγbaṛ</a>.",
        "source_code": "Tangalt aγbalu",
        "suggest_downloading_via_fdroid": "Γas akken asider n APK yella ddaw-a, ẓer d akken ma tesbeddeḍ asnas s tarrayrt-agi, ur d-tremseḍ ara ar zdat ilγa udiq d tarrayt ur nerkid ara i usider. Yelha limer ad tesbeddeḍ amsaγ F-Droid i waya.",
        "technical_info": "Talγut tatiknikant",
        "version_info": "<b>Lqem [package_version]</b> ([package_version_code]) - Yettawra di [package_added_date]",
        "website": "Asmel Web"
    },
    "sidebars": {
        "donate": {
            "bank_transfer_name": "Isem",
            "bitcoin_alt": "Mudd s Bitcoin",
            "flattr_alt": "Mudd s Flattr",
            "heading": "Tawsa",
            "liberapay_alt": "Mudd s Liberapay",
            "litecoin_alt": "Mudd s LiteCoin",
            "paypal_alt": "Mudd s Paypal",
            "powered_by_donations": "F-Droid yettidir s tewsa-ik !",
            "via_bank_transfer": "Asiweḍ s lbanka"
        },
        "last_updated": {
            "heading": "Aleqqem aneggaru"
        },
        "latest_packages": {
            "heading": "Isnasen ineggura"
        },
        "news": {
            "heading": "Isallen"
        },
        "search": {
            "heading": "Af-d isnasen",
            "noscript": "Yesra armad n JavaScript",
            "search": "Nadi"
        }
    }
}
